{
  "project_info": {
    "project_number": "679151486802",
    "firebase_url": "https://prueba-ac067.firebaseio.com",
    "project_id": "prueba-ac067",
    "storage_bucket": "prueba-ac067.appspot.com"
  },
  "client": [
    {
      "client_info": {
        "mobilesdk_app_id": "1:679151486802:android:cded2e4fe2b22cf1",
        "android_client_info": {
          "package_name": "com.help.animal.animalhelp"
        }
      },
      "oauth_client": [
        {
          "client_id": "679151486802-cbdsn1t9arc79ela7dcvbak8pmtrggvh.apps.googleusercontent.com",
          "client_type": 1,
          "android_info": {
            "package_name": "com.help.animal.animalhelp",
            "certificate_hash": "4a9795d69ac0e0c448f3a96a957fa721f443b7ab"
          }
        },
        {
          "client_id": "679151486802-095dacgm1sa7cfaqmd5v43hr7trn6n6d.apps.googleusercontent.com",
          "client_type": 3
        }
      ],
      "api_key": [
        {
          "current_key": "AIzaSyBuLr3Ua5DyIiaVKWFXLVB9EE6eq9owPfI"
        }
      ],
      "services": {
        "analytics_service": {
          "status": 1
        },
        "appinvite_service": {
          "status": 2,
          "other_platform_oauth_client": [
            {
              "client_id": "679151486802-095dacgm1sa7cfaqmd5v43hr7trn6n6d.apps.googleusercontent.com",
              "client_type": 3
            }
          ]
        },
        "ads_service": {
          "status": 2
        }
      }
    }
  ],
  "configuration_version": "1"
}